[
  {
    "province": "Central",
    "districts": [
      "Matale",
      "Kandy",
      "Nuware Eliya"
    ]
  },
  {
    "province": "Western",
    "districts": [
      "Colombo",
      "Kaluthara",
      "Gampaha"
    ]
  },
  {
    "province": "Eastern",
    "districts": [
      "Baticalo",
      "Trinco"
    ]
  },
  {
    "province": "Souther",
    "districts": [
      "Galle",
      "Matara",
      "Hambanthota"
    ]
  }
]